%YAML 1.1
%TAG !u! tag:unity3d.com,2011:
--- !u!114 &11400000
MonoBehaviour:
  m_ObjectHideFlags: 0
  m_CorrespondingSourceObject: {fileID: 0}
  m_PrefabInstance: {fileID: 0}
  m_PrefabAsset: {fileID: 0}
  m_GameObject: {fileID: 0}
  m_Enabled: 1
  m_EditorHideFlags: 0
  m_Script: {fileID: 11500000, guid: a7360cfe4065548e8a1c1edc4e31dd9a, type: 3}
  m_Name: PlayerHealthProgress
  m_EditorClassIdentifier: 
  startExp: 0
  CurrentExp: 160
  totalCurrentExp: 360
  startLevel: 5
  CurrentLevel: 1
  MaxExps: 7800000078000000780000007800000078000000780000007800000078000000
  totalMaxExp: 1000
  OnLevelUpdated:
    m_PersistentCalls:
      m_Calls: []
  OnLevelUp:
    m_PersistentCalls:
      m_Calls: []
  OnLevelDown:
    m_PersistentCalls:
      m_Calls: []
  OnProgressBelowZero:
    m_PersistentCalls:
      m_Calls:
      - m_Target: {fileID: 11400000, guid: 63ebfd264113513419c5883900256e26, type: 2}
        m_TargetAssemblyTypeName: ScriptableSystem.ScriptableDebugger, Assembly-CSharp
        m_MethodName: Log
        m_Mode: 5
        m_Arguments:
          m_ObjectArgument: {fileID: 0}
          m_ObjectArgumentAssemblyTypeName: UnityEngine.Object, UnityEngine
          m_IntArgument: 0
          m_FloatArgument: 0
          m_StringArgument: progress below zero
          m_BoolArgument: 0
        m_CallState: 2
  OnProgressReachedMax:
    m_PersistentCalls:
      m_Calls: []
  OnXpIncreased:
    m_PersistentCalls:
      m_Calls: []
  OnXpDecreased:
    m_PersistentCalls:
      m_Calls: []
  OnCurrentXpSet:
    m_PersistentCalls:
      m_Calls: []
  OnProgressRatioChanged:
    m_PersistentCalls:
      m_Calls: []
  OnTotalProgressRatioChanged:
    m_PersistentCalls:
      m_Calls: []
