%YAML 1.1
%TAG !u! tag:unity3d.com,2011:
--- !u!114 &11400000
MonoBehaviour:
  m_ObjectHideFlags: 0
  m_CorrespondingSourceObject: {fileID: 0}
  m_PrefabInstance: {fileID: 0}
  m_PrefabAsset: {fileID: 0}
  m_GameObject: {fileID: 0}
  m_Enabled: 1
  m_EditorHideFlags: 0
  m_Script: {fileID: 11500000, guid: 6ec95c10ef0c54e568805cd6c34f2de0, type: 3}
  m_Name: RicochetFeedbackData
  m_EditorClassIdentifier: 
  FeedbackSprite:
    useValue: 1
    variable: {fileID: 0}
    constantValue: {fileID: 21300000, guid: c8e69bc36e5a82d45944877249875558, type: 3}
  FeedbackTime:
    useValue: 0
    variable: {fileID: 11400000, guid: 1638406287af343b5a091856c9839374, type: 2}
    constantValue: 1.5
  AnimationTrigger:
    useValue: 0
    variable: {fileID: 11400000, guid: d7a1911adbdf547e89f616ca43d46117, type: 2}
    constantValue: 
