%YAML 1.1
%TAG !u! tag:unity3d.com,2011:
--- !u!114 &11400000
MonoBehaviour:
  m_ObjectHideFlags: 0
  m_CorrespondingSourceObject: {fileID: 0}
  m_PrefabInstance: {fileID: 0}
  m_PrefabAsset: {fileID: 0}
  m_GameObject: {fileID: 0}
  m_Enabled: 1
  m_EditorHideFlags: 0
  m_Script: {fileID: 11500000, guid: a36f5d0882755485d9addd7e38330492, type: 3}
  m_Name: Level
  m_EditorClassIdentifier: 
  saveData:
    Enabled: 1
    SaveKey:
      useValue: 1
      variable: {fileID: 0}
      constantValue: Gold
  value: 0
