%YAML 1.1
%TAG !u! tag:unity3d.com,2011:
--- !u!114 &11400000
MonoBehaviour:
  m_ObjectHideFlags: 0
  m_CorrespondingSourceObject: {fileID: 0}
  m_PrefabInstance: {fileID: 0}
  m_PrefabAsset: {fileID: 0}
  m_GameObject: {fileID: 0}
  m_Enabled: 1
  m_EditorHideFlags: 0
  m_Script: {fileID: 11500000, guid: 323fa5d41b39d4d0690a0044740fba08, type: 3}
  m_Name: 0.5SeccondTimeTrigger
  m_EditorClassIdentifier: 
  floatTriggerTime: 0.5
  startTime: 0
