%YAML 1.1
%TAG !u! tag:unity3d.com,2011:
--- !u!21 &2100000
Material:
  serializedVersion: 6
  m_ObjectHideFlags: 0
  m_CorrespondingSourceObject: {fileID: 0}
  m_PrefabInstance: {fileID: 0}
  m_PrefabAsset: {fileID: 0}
  m_Name: Underwater
  m_Shader: {fileID: -6465566751694194690, guid: c364b2f6d92c3d94fb154cb63a77dd9c, type: 3}
  m_ShaderKeywords: FOAM_SHADOWS_ON INTERSECTION_EFFECTS_ON REFRACTION_ON WATER_LIGHTING_ON
    WORLD_SPACE_UV_ON
  m_LightmapFlags: 4
  m_EnableInstancingVariants: 0
  m_DoubleSidedGI: 0
  m_CustomRenderQueue: -1
  stringTagMap: {}
  disabledShaderPasses: []
  m_SavedProperties:
    serializedVersion: 3
    m_TexEnvs:
    - unity_Lightmaps:
        m_Texture: {fileID: 0}
        m_Scale: {x: 1, y: 1}
        m_Offset: {x: 0, y: 0}
    - unity_LightmapsInd:
        m_Texture: {fileID: 0}
        m_Scale: {x: 1, y: 1}
        m_Offset: {x: 0, y: 0}
    - unity_ShadowMasks:
        m_Texture: {fileID: 0}
        m_Scale: {x: 1, y: 1}
        m_Offset: {x: 0, y: 0}
    m_Ints: []
    m_Floats:
    - REFRACTION: 1
    - _RefractionStrength: 0.014
    m_Colors:
    - _NormalsMovement: {r: 0.035, g: 0.22, b: 0, a: 0}
    - _WaterColorUnderwater: {r: 0.32941, g: 0.41176292, b: 0.57647055, a: 0}
    - _WaveDirections: {r: 0, g: 0.64, b: 1, a: 0.33}
    - _WaveVisuals: {r: 0.132, g: 7.9, b: 1.38, a: 0}
  m_BuildTextureStacks: []
--- !u!114 &9190417809085234721
MonoBehaviour:
  m_ObjectHideFlags: 11
  m_CorrespondingSourceObject: {fileID: 0}
  m_PrefabInstance: {fileID: 0}
  m_PrefabAsset: {fileID: 0}
  m_GameObject: {fileID: 0}
  m_Enabled: 1
  m_EditorHideFlags: 0
  m_Script: {fileID: 11500000, guid: d0353a89b1f911e48b9e16bdc9f2e058, type: 3}
  m_Name: 
  m_EditorClassIdentifier: 
  version: 2
