%YAML 1.1
%TAG !u! tag:unity3d.com,2011:
--- !u!114 &11400000
MonoBehaviour:
  m_ObjectHideFlags: 0
  m_CorrespondingSourceObject: {fileID: 0}
  m_PrefabInstance: {fileID: 0}
  m_PrefabAsset: {fileID: 0}
  m_GameObject: {fileID: 0}
  m_Enabled: 1
  m_EditorHideFlags: 0
  m_Script: {fileID: 11500000, guid: 26204a57f33c8408caad60a683eadfbe, type: 3}
  m_Name: Upgrade2 Replacable Data
  m_EditorClassIdentifier: 
  Replaced: {fileID: 11400000, guid: b4782faf6fa684657b782132e632eda1, type: 2}
  Replacement: {fileID: 11400000, guid: 7d15969f9e398414a979b811fb840192, type: 2}
